{
    "add":{
        "icon":"fa-plus",
        "name":"添加",
        "absolute":null,
        "url":null,
        "set":null,
        "page":"cms",
        "action":"table",
        "qus":null
    },
    "list":{
        "icon":"fa-file",
        "name":"添加",
        "action":"table"
    },
    "modify":{
        "icon":"fa-edit",
        "name":"修改",
        "action":"modify"
    },
    "home":{
        "icon":"fa-desktop",
        "name":"首页",
        "page":"home",
        "action":"index"
    }
}