{
    "title": "列表项",
    "item": [
        {
            "icon": "fa-desktop",
            "name": "首页",
            "color": "lightyellow",
            "action":"table"
        },
        {
            "icon": "fa-file",
            "name": "订单管理",
            "color": "papayawhip",
            "action":"table"
        },
        {
            "icon": "fa-file",
            "name": "订单管理",
            "color": "coral",
            "action":"form"
        },
        {
            "icon": "fa-file",
            "name": "订单管理",
            "color": "lightblue",
            "action":"page"
        }
    ]
}